<?xml version="1.0" encoding="utf-8"?>
<!-- Generator: Adobe Illustrator 22.0.1, SVG Export Plug-In . SVG Version: 6.00 Build 0)  -->
<svg version="1.1" id="Capa_1" xmlns="http://www.w3.org/2000/svg" xmlns:xlink="http://www.w3.org/1999/xlink" x="0px" y="0px"
	 viewBox="0 0 477.2 257.8" style="enable-background:new 0 0 477.2 257.8;" xml:space="preserve">
<style type="text/css">
	.st0{fill:#313131;}
</style>
<g>
	<path class="st0" d="M247.1,253.8L474,30.5c5.3-5.3,5.4-13.8,0.2-19.1c-5.3-5.3-13.8-5.4-19.1-0.2L237.9,225L24.1,7.8
		C18.8,2.5,10.3,2.4,5,7.7c-2.6,2.6-4,6.1-4.1,9.5c0,3.4,1.2,6.9,3.9,9.5l223.3,226.9C233.3,258.9,241.9,259,247.1,253.8z"/>
</g>
</svg>
