<?xml version="1.0" encoding="utf-8"?>
<!-- Generator: Adobe Illustrator 21.0.2, SVG Export Plug-In . SVG Version: 6.00 Build 0)  -->
<svg version="1.1" id="Capa_1" xmlns="http://www.w3.org/2000/svg" xmlns:xlink="http://www.w3.org/1999/xlink" x="0px" y="0px"
	 viewBox="0 0 381.4 381.4" style="enable-background:new 0 0 381.4 381.4;" xml:space="preserve">
<style type="text/css">
	.st0{fill:#010002;}
</style>
<g>
	<g>
		<g>
			<path class="st0" d="M380.1,9.8c-1.6-3.9-4.7-7-8.6-8.6L365.5,0H206.6c-8.7,0-15.9,7.1-15.9,15.9s7.2,15.9,15.9,15.9h120.6
				L31.8,327.1V206.6c0-8.8-7.1-15.9-15.9-15.9S0,197.8,0,206.6v159l1.2,6l3.3,5l0.1,0.2l0.1,0.1l5,3.3l6.1,1.2h158.9
				c8.8,0,15.9-7.2,15.9-15.9s-7.1-15.9-15.9-15.9H54.3L349.6,54.3v120.6c0,8.8,7.2,15.9,15.9,15.9s15.9-7.1,15.9-15.9V15.9
				L380.1,9.8z"/>
		</g>
	</g>
</g>
</svg>
